{
  "quizz": [
    {
      "nom": "Quizz Informatique",
      "description": "Quizz sur l'informatique",
      "questions": [
        {
          "num": 1,
          "intitule": "A quoi est égal 1 octect ?",
          "reponses": [
            {
              "lettre": "A",
              "reponse": "8 bytes"
            },
            {
              "lettre": "B",
              "reponse": "8 bits"
            }
          ],
          "correctes": [
            "B"
          ]
        },
        {
          "num": 2,
          "intitule": "Quel est le langage informatique le plus courant utilisé pour écrire les pages web ?",
          "reponses": [
            {
              "lettre": "A",
              "reponse": "HTML"
            },
            {
              "lettre": "B",
              "reponse": "HTTP"
            },
            {
              "lettre": "C",
              "reponse": "Java"
            }
          ],
          "correctes": [
            "A"
          ]
        }
      ],
      "id": 0
    }
  ]
}